{
    "family": "hello-world-adapter",
    "containerDefinitions": [
        {
            "image": "%REPOSITORY_URI%:v_%BUILD_NUMBER%",
            "name": "hello-world-adapter",
            "cpu": 10,
            "memory": 256,
            "essential": true,
            "portMappings": [
                {
                    "containerPort": 8085,
                    "hostPort": 8085
                }
            ]
        }
    ]
}